{
    "href": "https://api.spotify.com/v1/me/top/artists?offset=0&limit=20&time_range=medium_term",
    "items": [
      {
        "external_urls": {
          "spotify": "https://open.spotify.com/artist/3TVXtAsR1Inumwj472S9r4"
        },
        "followers": {
          "href": null,
          "total": 87292118
        },
        "genres": [
          "canadian hip hop",
          "canadian pop",
          "hip hop",
          "pop rap",
          "rap"
        ],
        "href": "https://api.spotify.com/v1/artists/3TVXtAsR1Inumwj472S9r4",
        "id": "3TVXtAsR1Inumwj472S9r4",
        "images": [
          {
            "height": 640,
            "url": "https://i.scdn.co/image/ab6761610000e5eb4293385d324db8558179afd9",
            "width": 640
          },
          {
            "height": 320,
            "url": "https://i.scdn.co/image/ab676161000051744293385d324db8558179afd9",
            "width": 320
          },
          {
            "height": 160,
            "url": "https://i.scdn.co/image/ab6761610000f1784293385d324db8558179afd9",
            "width": 160
          }
        ],
        "name": "Drake",
        "popularity": 93,
        "type": "artist",
        "uri": "spotify:artist:3TVXtAsR1Inumwj472S9r4"
      },
      {
        "external_urls": {
          "spotify": "https://open.spotify.com/artist/0Y5tJX1MQlPlqiwlOH1tJY"
        },
        "followers": {
          "href": null,
          "total": 29073750
        },
        "genres": [
          "hip hop",
          "rap",
          "slap house"
        ],
        "href": "https://api.spotify.com/v1/artists/0Y5tJX1MQlPlqiwlOH1tJY",
        "id": "0Y5tJX1MQlPlqiwlOH1tJY",
        "images": [
          {
            "height": 640,
            "url": "https://i.scdn.co/image/ab6761610000e5eb19c2790744c792d05570bb71",
            "width": 640
          },
          {
            "height": 320,
            "url": "https://i.scdn.co/image/ab6761610000517419c2790744c792d05570bb71",
            "width": 320
          },
          {
            "height": 160,
            "url": "https://i.scdn.co/image/ab6761610000f17819c2790744c792d05570bb71",
            "width": 160
          }
        ],
        "name": "Travis Scott",
        "popularity": 90,
        "type": "artist",
        "uri": "spotify:artist:0Y5tJX1MQlPlqiwlOH1tJY"
      },
      {
        "external_urls": {
          "spotify": "https://open.spotify.com/artist/1URnnhqYAYcrqrcwql10ft"
        },
        "followers": {
          "href": null,
          "total": 18326760
        },
        "genres": [
          "atl hip hop",
          "hip hop",
          "rap"
        ],
        "href": "https://api.spotify.com/v1/artists/1URnnhqYAYcrqrcwql10ft",
        "id": "1URnnhqYAYcrqrcwql10ft",
        "images": [
          {
            "height": 640,
            "url": "https://i.scdn.co/image/ab6761610000e5eb4f8f76117470957c0e81e5b2",
            "width": 640
          },
          {
            "height": 320,
            "url": "https://i.scdn.co/image/ab676161000051744f8f76117470957c0e81e5b2",
            "width": 320
          },
          {
            "height": 160,
            "url": "https://i.scdn.co/image/ab6761610000f1784f8f76117470957c0e81e5b2",
            "width": 160
          }
        ],
        "name": "21 Savage",
        "popularity": 87,
        "type": "artist",
        "uri": "spotify:artist:1URnnhqYAYcrqrcwql10ft"
      },
      {
        "external_urls": {
          "spotify": "https://open.spotify.com/artist/2LIk90788K0zvyj2JJVwkJ"
        },
        "followers": {
          "href": null,
          "total": 3751055
        },
        "genres": [
          "deep underground hip hop",
          "kentucky hip hop",
          "pop rap",
          "rap"
        ],
        "href": "https://api.spotify.com/v1/artists/2LIk90788K0zvyj2JJVwkJ",
        "id": "2LIk90788K0zvyj2JJVwkJ",
        "images": [
          {
            "height": 640,
            "url": "https://i.scdn.co/image/ab6761610000e5eb2aab40ce03f3fa86163f78bb",
            "width": 640
          },
          {
            "height": 320,
            "url": "https://i.scdn.co/image/ab676161000051742aab40ce03f3fa86163f78bb",
            "width": 320
          },
          {
            "height": 160,
            "url": "https://i.scdn.co/image/ab6761610000f1782aab40ce03f3fa86163f78bb",
            "width": 160
          }
        ],
        "name": "Jack Harlow",
        "popularity": 78,
        "type": "artist",
        "uri": "spotify:artist:2LIk90788K0zvyj2JJVwkJ"
      },
      {
        "external_urls": {
          "spotify": "https://open.spotify.com/artist/2YZyLoL8N0Wb9xBt1NhZWg"
        },
        "followers": {
          "href": null,
          "total": 28252945
        },
        "genres": [
          "conscious hip hop",
          "hip hop",
          "rap",
          "west coast rap"
        ],
        "href": "https://api.spotify.com/v1/artists/2YZyLoL8N0Wb9xBt1NhZWg",
        "id": "2YZyLoL8N0Wb9xBt1NhZWg",
        "images": [
          {
            "height": 640,
            "url": "https://i.scdn.co/image/ab6761610000e5eb437b9e2a82505b3d93ff1022",
            "width": 640
          },
          {
            "height": 320,
            "url": "https://i.scdn.co/image/ab67616100005174437b9e2a82505b3d93ff1022",
            "width": 320
          },
          {
            "height": 160,
            "url": "https://i.scdn.co/image/ab6761610000f178437b9e2a82505b3d93ff1022",
            "width": 160
          }
        ],
        "name": "Kendrick Lamar",
        "popularity": 88,
        "type": "artist",
        "uri": "spotify:artist:2YZyLoL8N0Wb9xBt1NhZWg"
      },
      {
        "external_urls": {
          "spotify": "https://open.spotify.com/artist/5K4W6rqBFWDnAN6FQUkS6x"
        },
        "followers": {
          "href": null,
          "total": 25162599
        },
        "genres": [
          "chicago rap",
          "hip hop",
          "rap"
        ],
        "href": "https://api.spotify.com/v1/artists/5K4W6rqBFWDnAN6FQUkS6x",
        "id": "5K4W6rqBFWDnAN6FQUkS6x",
        "images": [
          {
            "height": 640,
            "url": "https://i.scdn.co/image/ab6761610000e5eb6e835a500e791bf9c27a422a",
            "width": 640
          },
          {
            "height": 320,
            "url": "https://i.scdn.co/image/ab676161000051746e835a500e791bf9c27a422a",
            "width": 320
          },
          {
            "height": 160,
            "url": "https://i.scdn.co/image/ab6761610000f1786e835a500e791bf9c27a422a",
            "width": 160
          }
        ],
        "name": "Kanye West",
        "popularity": 89,
        "type": "artist",
        "uri": "spotify:artist:5K4W6rqBFWDnAN6FQUkS6x"
      },
      {
        "external_urls": {
          "spotify": "https://open.spotify.com/artist/20wkVLutqVOYrc0kxFs7rA"
        },
        "followers": {
          "href": null,
          "total": 5736960
        },
        "genres": [
          "canadian contemporary r&b"
        ],
        "href": "https://api.spotify.com/v1/artists/20wkVLutqVOYrc0kxFs7rA",
        "id": "20wkVLutqVOYrc0kxFs7rA",
        "images": [
          {
            "height": 640,
            "url": "https://i.scdn.co/image/ab6761610000e5ebe5bc630548fb3517cf90edb8",
            "width": 640
          },
          {
            "height": 320,
            "url": "https://i.scdn.co/image/ab67616100005174e5bc630548fb3517cf90edb8",
            "width": 320
          },
          {
            "height": 160,
            "url": "https://i.scdn.co/image/ab6761610000f178e5bc630548fb3517cf90edb8",
            "width": 160
          }
        ],
        "name": "Daniel Caesar",
        "popularity": 77,
        "type": "artist",
        "uri": "spotify:artist:20wkVLutqVOYrc0kxFs7rA"
      },
      {
        "external_urls": {
          "spotify": "https://open.spotify.com/artist/4V8LLVI7PbaPR0K2TGSxFF"
        },
        "followers": {
          "href": null,
          "total": 14835513
        },
        "genres": [
          "hip hop",
          "rap"
        ],
        "href": "https://api.spotify.com/v1/artists/4V8LLVI7PbaPR0K2TGSxFF",
        "id": "4V8LLVI7PbaPR0K2TGSxFF",
        "images": [
          {
            "height": 640,
            "url": "https://i.scdn.co/image/ab6761610000e5eb8278b782cbb5a3963db88ada",
            "width": 640
          },
          {
            "height": 320,
            "url": "https://i.scdn.co/image/ab676161000051748278b782cbb5a3963db88ada",
            "width": 320
          },
          {
            "height": 160,
            "url": "https://i.scdn.co/image/ab6761610000f1788278b782cbb5a3963db88ada",
            "width": 160
          }
        ],
        "name": "Tyler, The Creator",
        "popularity": 82,
        "type": "artist",
        "uri": "spotify:artist:4V8LLVI7PbaPR0K2TGSxFF"
      },
      {
        "external_urls": {
          "spotify": "https://open.spotify.com/artist/4xRYI6VqpkE3UwrDrAZL8L"
        },
        "followers": {
          "href": null,
          "total": 6020123
        },
        "genres": [
          "conscious hip hop",
          "hip hop",
          "pop rap",
          "rap"
        ],
        "href": "https://api.spotify.com/v1/artists/4xRYI6VqpkE3UwrDrAZL8L",
        "id": "4xRYI6VqpkE3UwrDrAZL8L",
        "images": [
          {
            "height": 640,
            "url": "https://i.scdn.co/image/ab6761610000e5eb94678f7d5353a9b680f60d23",
            "width": 640
          },
          {
            "height": 320,
            "url": "https://i.scdn.co/image/ab6761610000517494678f7d5353a9b680f60d23",
            "width": 320
          },
          {
            "height": 160,
            "url": "https://i.scdn.co/image/ab6761610000f17894678f7d5353a9b680f60d23",
            "width": 160
          }
        ],
        "name": "Logic",
        "popularity": 71,
        "type": "artist",
        "uri": "spotify:artist:4xRYI6VqpkE3UwrDrAZL8L"
      },
      {
        "external_urls": {
          "spotify": "https://open.spotify.com/artist/5f7VJjfbwm532GiveGC0ZK"
        },
        "followers": {
          "href": null,
          "total": 17304281
        },
        "genres": [
          "atl hip hop",
          "atl trap",
          "rap",
          "trap"
        ],
        "href": "https://api.spotify.com/v1/artists/5f7VJjfbwm532GiveGC0ZK",
        "id": "5f7VJjfbwm532GiveGC0ZK",
        "images": [
          {
            "height": 640,
            "url": "https://i.scdn.co/image/ab6761610000e5eb6cad3eff5adc29e20f189a6c",
            "width": 640
          },
          {
            "height": 320,
            "url": "https://i.scdn.co/image/ab676161000051746cad3eff5adc29e20f189a6c",
            "width": 320
          },
          {
            "height": 160,
            "url": "https://i.scdn.co/image/ab6761610000f1786cad3eff5adc29e20f189a6c",
            "width": 160
          }
        ],
        "name": "Lil Baby",
        "popularity": 82,
        "type": "artist",
        "uri": "spotify:artist:5f7VJjfbwm532GiveGC0ZK"
      },
      {
        "external_urls": {
          "spotify": "https://open.spotify.com/artist/6icQOAFXDZKsumw3YXyusw"
        },
        "followers": {
          "href": null,
          "total": 9854579
        },
        "genres": [
          "atl hip hop",
          "melodic rap",
          "rap",
          "trap"
        ],
        "href": "https://api.spotify.com/v1/artists/6icQOAFXDZKsumw3YXyusw",
        "id": "6icQOAFXDZKsumw3YXyusw",
        "images": [
          {
            "height": 640,
            "url": "https://i.scdn.co/image/ab6761610000e5eb86c7c38d4c8c461dba55035c",
            "width": 640
          },
          {
            "height": 320,
            "url": "https://i.scdn.co/image/ab6761610000517486c7c38d4c8c461dba55035c",
            "width": 320
          },
          {
            "height": 160,
            "url": "https://i.scdn.co/image/ab6761610000f17886c7c38d4c8c461dba55035c",
            "width": 160
          }
        ],
        "name": "Lil Yachty",
        "popularity": 76,
        "type": "artist",
        "uri": "spotify:artist:6icQOAFXDZKsumw3YXyusw"
      },
      {
        "external_urls": {
          "spotify": "https://open.spotify.com/artist/6Xgp2XMz1fhVYe7i6yNAax"
        },
        "followers": {
          "href": null,
          "total": 9466316
        },
        "genres": [
          "melodic rap",
          "rap",
          "trap"
        ],
        "href": "https://api.spotify.com/v1/artists/6Xgp2XMz1fhVYe7i6yNAax",
        "id": "6Xgp2XMz1fhVYe7i6yNAax",
        "images": [
          {
            "height": 640,
            "url": "https://i.scdn.co/image/ab6761610000e5ebf2db81b3312a1f167fc54096",
            "width": 640
          },
          {
            "height": 320,
            "url": "https://i.scdn.co/image/ab67616100005174f2db81b3312a1f167fc54096",
            "width": 320
          },
          {
            "height": 160,
            "url": "https://i.scdn.co/image/ab6761610000f178f2db81b3312a1f167fc54096",
            "width": 160
          }
        ],
        "name": "Trippie Redd",
        "popularity": 77,
        "type": "artist",
        "uri": "spotify:artist:6Xgp2XMz1fhVYe7i6yNAax"
      },
      {
        "external_urls": {
          "spotify": "https://open.spotify.com/artist/1RyvyyTE3xzB2ZywiAwp0i"
        },
        "followers": {
          "href": null,
          "total": 16864828
        },
        "genres": [
          "atl hip hop",
          "hip hop",
          "rap",
          "southern hip hop",
          "trap"
        ],
        "href": "https://api.spotify.com/v1/artists/1RyvyyTE3xzB2ZywiAwp0i",
        "id": "1RyvyyTE3xzB2ZywiAwp0i",
        "images": [
          {
            "height": 640,
            "url": "https://i.scdn.co/image/ab6761610000e5eb6ef89e23678018c6d8630825",
            "width": 640
          },
          {
            "height": 320,
            "url": "https://i.scdn.co/image/ab676161000051746ef89e23678018c6d8630825",
            "width": 320
          },
          {
            "height": 160,
            "url": "https://i.scdn.co/image/ab6761610000f1786ef89e23678018c6d8630825",
            "width": 160
          }
        ],
        "name": "Future",
        "popularity": 90,
        "type": "artist",
        "uri": "spotify:artist:1RyvyyTE3xzB2ZywiAwp0i"
      },
      {
        "external_urls": {
          "spotify": "https://open.spotify.com/artist/6l3HvQ5sa6mXTsMTB19rO5"
        },
        "followers": {
          "href": null,
          "total": 23396966
        },
        "genres": [
          "conscious hip hop",
          "hip hop",
          "north carolina hip hop",
          "rap"
        ],
        "href": "https://api.spotify.com/v1/artists/6l3HvQ5sa6mXTsMTB19rO5",
        "id": "6l3HvQ5sa6mXTsMTB19rO5",
        "images": [
          {
            "height": 640,
            "url": "https://i.scdn.co/image/ab6761610000e5eb4b053c29fd4b317ff825f0dc",
            "width": 640
          },
          {
            "height": 320,
            "url": "https://i.scdn.co/image/ab676161000051744b053c29fd4b317ff825f0dc",
            "width": 320
          },
          {
            "height": 160,
            "url": "https://i.scdn.co/image/ab6761610000f1784b053c29fd4b317ff825f0dc",
            "width": 160
          }
        ],
        "name": "J. Cole",
        "popularity": 84,
        "type": "artist",
        "uri": "spotify:artist:6l3HvQ5sa6mXTsMTB19rO5"
      },
      {
        "external_urls": {
          "spotify": "https://open.spotify.com/artist/4O15NlyKLIASxsJ0PrXPfz"
        },
        "followers": {
          "href": null,
          "total": 17027829
        },
        "genres": [
          "hip hop",
          "melodic rap",
          "philly rap",
          "rage rap",
          "rap",
          "trap"
        ],
        "href": "https://api.spotify.com/v1/artists/4O15NlyKLIASxsJ0PrXPfz",
        "id": "4O15NlyKLIASxsJ0PrXPfz",
        "images": [
          {
            "height": 640,
            "url": "https://i.scdn.co/image/ab6761610000e5eb1234d2f516796badbdf16a89",
            "width": 640
          },
          {
            "height": 320,
            "url": "https://i.scdn.co/image/ab676161000051741234d2f516796badbdf16a89",
            "width": 320
          },
          {
            "height": 160,
            "url": "https://i.scdn.co/image/ab6761610000f1781234d2f516796badbdf16a89",
            "width": 160
          }
        ],
        "name": "Lil Uzi Vert",
        "popularity": 80,
        "type": "artist",
        "uri": "spotify:artist:4O15NlyKLIASxsJ0PrXPfz"
      },
      {
        "external_urls": {
          "spotify": "https://open.spotify.com/artist/2hlmm7s2ICUX0LVIhVFlZQ"
        },
        "followers": {
          "href": null,
          "total": 7085290
        },
        "genres": [
          "atl hip hop",
          "melodic rap",
          "rap",
          "trap"
        ],
        "href": "https://api.spotify.com/v1/artists/2hlmm7s2ICUX0LVIhVFlZQ",
        "id": "2hlmm7s2ICUX0LVIhVFlZQ",
        "images": [
          {
            "height": 640,
            "url": "https://i.scdn.co/image/ab6761610000e5ebb978b95b8e03351df8e103af",
            "width": 640
          },
          {
            "height": 320,
            "url": "https://i.scdn.co/image/ab67616100005174b978b95b8e03351df8e103af",
            "width": 320
          },
          {
            "height": 160,
            "url": "https://i.scdn.co/image/ab6761610000f178b978b95b8e03351df8e103af",
            "width": 160
          }
        ],
        "name": "Gunna",
        "popularity": 81,
        "type": "artist",
        "uri": "spotify:artist:2hlmm7s2ICUX0LVIhVFlZQ"
      },
      {
        "external_urls": {
          "spotify": "https://open.spotify.com/artist/4MCBfE4596Uoi2O4DtmEMz"
        },
        "followers": {
          "href": null,
          "total": 33455513
        },
        "genres": [
          "chicago rap",
          "melodic rap",
          "rap"
        ],
        "href": "https://api.spotify.com/v1/artists/4MCBfE4596Uoi2O4DtmEMz",
        "id": "4MCBfE4596Uoi2O4DtmEMz",
        "images": [
          {
            "height": 640,
            "url": "https://i.scdn.co/image/ab6761610000e5eb1908e1a8b79abf71d5598944",
            "width": 640
          },
          {
            "height": 320,
            "url": "https://i.scdn.co/image/ab676161000051741908e1a8b79abf71d5598944",
            "width": 320
          },
          {
            "height": 160,
            "url": "https://i.scdn.co/image/ab6761610000f1781908e1a8b79abf71d5598944",
            "width": 160
          }
        ],
        "name": "Juice WRLD",
        "popularity": 83,
        "type": "artist",
        "uri": "spotify:artist:4MCBfE4596Uoi2O4DtmEMz"
      },
      {
        "external_urls": {
          "spotify": "https://open.spotify.com/artist/0iEtIxbK0KxaSlF7G42ZOp"
        },
        "followers": {
          "href": null,
          "total": 7948812
        },
        "genres": [
          "rap"
        ],
        "href": "https://api.spotify.com/v1/artists/0iEtIxbK0KxaSlF7G42ZOp",
        "id": "0iEtIxbK0KxaSlF7G42ZOp",
        "images": [
          {
            "height": 640,
            "url": "https://i.scdn.co/image/ab6761610000e5ebdf9a1555f53a20087b8c5a5c",
            "width": 640
          },
          {
            "height": 320,
            "url": "https://i.scdn.co/image/ab67616100005174df9a1555f53a20087b8c5a5c",
            "width": 320
          },
          {
            "height": 160,
            "url": "https://i.scdn.co/image/ab6761610000f178df9a1555f53a20087b8c5a5c",
            "width": 160
          }
        ],
        "name": "Metro Boomin",
        "popularity": 90,
        "type": "artist",
        "uri": "spotify:artist:0iEtIxbK0KxaSlF7G42ZOp"
      },
      {
        "external_urls": {
          "spotify": "https://open.spotify.com/artist/1Xyo4u8uXC1ZmMpatF05PJ"
        },
        "followers": {
          "href": null,
          "total": 82902188
        },
        "genres": [
          "canadian contemporary r&b",
          "canadian pop",
          "pop"
        ],
        "href": "https://api.spotify.com/v1/artists/1Xyo4u8uXC1ZmMpatF05PJ",
        "id": "1Xyo4u8uXC1ZmMpatF05PJ",
        "images": [
          {
            "height": 640,
            "url": "https://i.scdn.co/image/ab6761610000e5eb214f3cf1cbe7139c1e26ffbb",
            "width": 640
          },
          {
            "height": 320,
            "url": "https://i.scdn.co/image/ab67616100005174214f3cf1cbe7139c1e26ffbb",
            "width": 320
          },
          {
            "height": 160,
            "url": "https://i.scdn.co/image/ab6761610000f178214f3cf1cbe7139c1e26ffbb",
            "width": 160
          }
        ],
        "name": "The Weeknd",
        "popularity": 91,
        "type": "artist",
        "uri": "spotify:artist:1Xyo4u8uXC1ZmMpatF05PJ"
      },
      {
        "external_urls": {
          "spotify": "https://open.spotify.com/artist/7tYKF4w9nC0nq9CsPZTHyP"
        },
        "followers": {
          "href": null,
          "total": 19656198
        },
        "genres": [
          "pop",
          "r&b",
          "rap"
        ],
        "href": "https://api.spotify.com/v1/artists/7tYKF4w9nC0nq9CsPZTHyP",
        "id": "7tYKF4w9nC0nq9CsPZTHyP",
        "images": [
          {
            "height": 640,
            "url": "https://i.scdn.co/image/ab6761610000e5eb0895066d172e1f51f520bc65",
            "width": 640
          },
          {
            "height": 320,
            "url": "https://i.scdn.co/image/ab676161000051740895066d172e1f51f520bc65",
            "width": 320
          },
          {
            "height": 160,
            "url": "https://i.scdn.co/image/ab6761610000f1780895066d172e1f51f520bc65",
            "width": 160
          }
        ],
        "name": "SZA",
        "popularity": 87,
        "type": "artist",
        "uri": "spotify:artist:7tYKF4w9nC0nq9CsPZTHyP"
      }
    ],
    "limit": 20,
    "next": "https://api.spotify.com/v1/me/top/artists?offset=20&limit=20&time_range=medium_term",
    "offset": 0,
    "previous": null,
    "total": 150
  }